23: ANOVA in R – stat120
…
PACT (puissance, remonstrance, agreement, skillet, pressure, don’t know)

CLOISTERED (miniature, bunched, arched, malady, secluded, don’t know)

CAPRICE (value, a star, grimace, whim, inducement, don’t know)

ACCUSTOM (disappoint, customary, encounter, get used to, business, don’t know)

ALLUSION (reference, dream, eulogy, illusion, aria, don’t know)

gss = read_csv("https://raw.githubusercontent.com/OpenIntroStat/ims-tutorials/master/05-infer/08-lesson/data/gss_wordsum_class.csv")
gss

# A tibble: 795 × 2
   wordsum class  
     <dbl> <chr>  
 1       6 MIDDLE 
 2       9 WORKING
 3       6 WORKING
 4       5 WORKING
 5       6 WORKING
 6       6 WORKING
 7       8 MIDDLE 
 8      10 WORKING
 9       8 WORKING
10       9 UPPER  
# ℹ 785 more rows
…
