stat120 – 15: More On Testing
…
# A tibble: 23 × 2
     age heart_rate
   <dbl>      <dbl>
 1  70.7       76.2
 2  87.4       86.0
 3  67.3       95.4
 4  80.4      108. 
 5  95.1       88.9
 6  60.7      116. 
 7  83.9       67.4
 8  79.6       73.7
 9  90.9       95.0
10  62.3       79.5
# ℹ 13 more rows
…
